{
	"process_id" : 5216,
	"version" : "2019.2.0a7",
	"app_path" : "C:/Program Files/Unity/Hub/Editor/2019.2.0a7/Editor/Unity.exe",
	"app_contents_path" : "C:/Program Files/Unity/Hub/Editor/2019.2.0a7/Editor/Data"
}